﻿<decClase>::= public Class ID {<Miembros>}
<Miembros>::= <Miembro><Miembros>
<Miembros>::= λ
<Miembro>::= public <Metatrib>
<MetAtrib>::= void ID ( ) {<Sentencias>}
<Metatrib>::= <Tipo> ID <AsignAtribs>  ;
<AsignAtribs>::= <Asignacion> <AsignAtribs2>
<AsignAtribs>::= <AsignAtribs2>
<AsignAtribs2>::=  λ
<AsignAtribs2>::= , ID <AsignAtribs>
<Tipo>::= int
<Tipo>::= float
<Tipo>::= string
<Tipo>::= bool 
<Asignacion>::=  = <Expresion>
<Expresion>::= <Factor> <Termino>
<Expresion>::=  [  <Expresion> ]
<Factor>::= - <EntDec>
<Factor>::= <EntDec>
<Factor>::= Cadena
<Factor>::= true
<Factor>::= false
<Factor>::= ID
<EntDec>::=Enteros
<EntDec>::=Decimales
<Reasignacion>::=   ++
<Reasignacion>::=   - -
<Reasignacion>::= <Asignacion>
<Termino>::= <Operador><Expresion>
<Termino>::= λ
<Operador>::= +
<Operador>::= -
<Operador>::= *
<Operador>::= /
<Sentencias>::= <Sentencia><Sentencias>
<Sentencias>::= λ
<Sentencia>::= <IF> 
<Sentencia>::= <FOR>
<Sentencia>::= <WHILE>    
<Sentencia>::= ID <Asignacion>;                                  
<Sentencia>::= <Declaracion>     
<Sentencia>::= <Escribir>               
<Sentencia>::= <Leer>                                               
<Sentencia>::= <Switch>                                                    
<IF>::= IF (<Condicionales>) {<Sentencias>} <ELSE>                              //
<Condicionales>::= <Condicional><MasCondicionales>                              //Listo
<Condicional>::= <Expresion><OpRelacional><Expresion>                           //
<Condicional>::= (<Condicional>)  <MasCondicionales>                                              //
<MasCondicionales>::= <OpLogico> <Condicional> <MasCondicionales>
<MasCondicionales>::= λ
<OpRelacional>::= ==
<OpRelacional>::= !=
<OpRelacional>::= >
<OpRelacional>::= <
<OpRelacional>::= >=
<OpRelacional>::= <=
<OpLogico>::= ||
<OpLogico>::= &&
<ELSE>::= λ
<ELSE>::= ELSE <IF>
<ELSE>::= {<Sentencias>}
<FOR>::= for (nt ID <Asignacion> ; <Condicionales> ; ID <Reasignacion>;) {<Sentencias>}
<WHILE>:= WHILE(<Condicionales>){<Sentencias>}
<Declaracion>::= public <Tipo><AsignAtribs> ;
<Escribir>::= PRINT(<Expresion>);
<Leer>::= Scanner();
<Switch>::= SWITCH(ID){ <Cases> <Default>}
<Cases>::= <Case><MoreCases>
<Case>::= CASE ID: <Sentencias> <Break>
<MoreCases>::= <Cases>
<MoreCases>::= λ
<Default>::= DEFAULT <Break>
<Default>::= λ
<Break>::= BREAK;
<Break>::= λ

